ST558-2024-Project-Final-modeling
…
Loading required package: parallel

registerDoParallel(cores = 6)

diabetes_clstr_fits <- diabetes_clstr_wkf |> 
  tune_grid(resamples = diabetesdata_5_fold,
            grid = diabetes_clstr_grid,
            metrics = metrics,
            control = control_grid(verbose = TRUE))

stopImplicitCluster()

diabetes_clstr_fits |> collect_metrics ()

# A tibble: 32 × 8
   cost_complexity tree_depth .metric     .estimator  mean     n std_err .config
             <dbl>      <int> <chr>       <chr>      <dbl> <int>   <dbl> <chr>  
 1    0.0000000001          1 accuracy    binary     0.861     5 9.43e-4 Prepro…
 2    0.0000000001          1 mn_log_loss binary     0.403     5 1.72e-3 Prepro…
 3    0.0000001             1 accuracy    binary     0.861     5 9.43e-4 Prepro…
 4    0.0000001             1 mn_log_loss binary     0.403     5 1.72e-3 Prepro…
 5    0.0001                1 accuracy    binary     0.861     5 9.43e-4 Prepro…
 6    0.0001                1 mn_log_loss binary     0.403     5 1.72e-3 Prepro…
 7    0.1                   1 accuracy    binary     0.861     5 9.43e-4 Prepro…
 8    0.1                   1 mn_log_loss binary     0.403     5 1.72e-3 Prepro…
 9    0.0000000001          5 accuracy    binary     0.864     5 1.29e-3 Prepro…
10    0.0000000001          5 mn_log_loss binary     0.357     5 1.59e-3 Prepro…
# ℹ 22 more rows
…
